<?xml version="1.0" standalone="no"?>
<!DOCTYPE svg PUBLIC "-//W3C//DTD SVG 20010904//EN"
 "http://www.w3.org/TR/2001/REC-SVG-20010904/DTD/svg10.dtd">
<svg version="1.0" xmlns="http://www.w3.org/2000/svg"
 width="128.000000pt" height="128.000000pt" viewBox="0 0 128.000000 128.000000"
 preserveAspectRatio="xMidYMid meet">
<metadata>
Created by potrace 1.14, written by Peter Selinger 2001-2017
</metadata>
<g transform="translate(0.000000,128.000000) scale(0.100000,-0.100000)"
fill="#000000" stroke="none">
<path d="M0 640 l0 -640 640 0 640 0 0 640 0 640 -640 0 -640 0 0 -640z m759
465 c214 -57 361 -246 361 -465 0 -265 -215 -480 -480 -480 -265 0 -480 215
-480 480 0 217 146 407 357 465 65 18 176 18 242 0z"/>
<path d="M531 1064 c-80 -21 -145 -60 -206 -125 -170 -178 -163 -443 14 -613
175 -166 427 -166 602 0 177 170 184 435 14 613 -114 120 -271 166 -424 125z
m99 -229 l0 -185 -186 0 -187 0 7 47 c22 163 187 318 344 322 l22 1 0 -185z
m186 145 c108 -52 195 -170 210 -283 l7 -47 -192 0 -191 0 0 186 0 187 53 -7
c28 -4 79 -20 113 -36z m-186 -536 l0 -186 -47 7 c-155 22 -299 165 -319 318
l-7 47 187 0 186 0 0 -186z m396 139 c-21 -155 -167 -299 -323 -319 l-53 -7 0
187 0 186 191 0 192 0 -7 -47z"/>
</g>
</svg>
